{
    "timezone": "Europe/Madrid",
    "host": "0.0.0.0",
    "port": 9200,
    "index": "beat",
    "_mapping": {
        "mappings": {
            "beat": {
                "properties": {
                    "timestamp": {
                        "type": "date",
                        "format": "yyyy-MM-dd HH:mm:ss"
                    },
                    "tool": {
                        "type": "keyword"
                    },
                    "status": {
                        "type": "integer"
                    }
                }
            }
        }
    }
}
